INDEX VERSION 1.3+D:\HMS BACKUP\Bitbucket\Java-Workspace\.metadata\.plugins\org.eclipse.wst.jsdt.core\indexes
1955568378.index
2940685263.index
3996042544.index
1478645967.index
1097882124.index
26041150.index
